…
To look at how tree biomass varies across neighbourhoods, I will find
out how many observations (= number of trees, since each row of the data
frame is a different tree) there are across the different
neighbourhoods. Since I want to measure biomass, which is a combination
of tree sizes and number of trees, this will give me an idea of how many
trees are in each neighbourhood, but won’t get at the total biomass yet.

``` r
(trees_neighbourhood <- trees %>% 
  group_by(neighbourhood_name) %>% 
  summarise(n = n()))
```

    ## # A tibble: 22 × 2
    ##    neighbourhood_name           n
    ##    <chr>                    <int>
    ##  1 ARBUTUS-RIDGE             5166
    ##  2 DOWNTOWN                  5157
    ##  3 DUNBAR-SOUTHLANDS         9392
    ##  4 FAIRVIEW                  4001
    ##  5 GRANDVIEW-WOODLAND        6699
    ##  6 HASTINGS-SUNRISE         10544
    ##  7 KENSINGTON-CEDAR COTTAGE 11033
    ##  8 KERRISDALE                6931
    ##  9 KILLARNEY                 6142
    ## 10 KITSILANO                 8105
    ## # … with 12 more rows
…
